Five Minute Football Trivia - Trans-Europe Express | Robert Hickman
…
#find the matches played by champions
winners_matches <- left_join(winners, match_travel, by = c("season", "team_name")) %>%
  group_by(season, team_name) %>%
  mutate(matches = n(), total_travel = sum(distance/1000)) %>%
  ungroup() %>%
  #calculate average travel per game
  mutate(average_travel = total_travel / matches,
         date = as.Date(gsub("\\/", "-", date), "%d-%m-%Y")) %>%
  select(season, date, round, home = home_keep, away = away_keep, result, distance, average_travel) %>%
  arrange(average_travel, date)

#print the 3 campaigns with the lowest average travel
head(winners_matches, n = 27)

## # A tibble: 27 x 8
##    season  date       round   home    away   result distance average_travel
##    <chr>   <date>     <chr>   <chr>   <chr>  <chr>       [m]          <dbl>
##  1 1963-1… 1963-09-18 1. Rou… Everto… Inter  0:0 (… 1247112…           410.
##  2 1963-1… 1963-09-25 1. Rou… Inter   Evert… 1:0 (…       0…           410.
##  3 1963-1… 1963-11-27 Round … Inter   AS Mo… 1:0 (…       0…           410.
##  4 1963-1… 1963-12-04 Round … AS Mon… Inter  1:3 (…  236127…           410.
##  5 1963-1… 1964-02-26 Quarte… Partiz… Inter  0:2 (…  891298…           410.
##  6 1963-1… 1964-03-04 Quarte… Inter   Parti… 2:1 (…       0…           410.
##  7 1963-1… 1964-04-15 Semi-f… Boruss… Inter  2:2 (…  684493…           410.
##  8 1963-1… 1964-04-29 Semi-f… Inter   Borus… 2:0 (…       0…           410.
##  9 1963-1… 1964-05-27 Final   Inter   Real … 3:1 (…  632859…           410.
## 10 1971-1… 1971-09-15 1. Rou… AFC Aj… Dynam… 2:0 (…       0…           433.
## # … with 17 more rows
…
