Predicting the 2018-19 Women's Super League Using xG and Dixon-Coles | Robert Hickman
…
simulated_games <- wsl_matches %>%
  mutate(simulated_probabilities = map(shots, simulate_game)) %>%
  select(match_id, home, away, simulated_probabilities) %>%
  unnest() %>%
  filter(prob > 0.001) %>%  # Keep the number of rows vaguely reasonable
  rename(hgoals = homegoals, agoals = awaygoals)

simulated_games

## # A tibble: 1,291 x 6
##    match_id home            away    hgoals agoals    prob
##       <int> <fct>           <fct>    <int>  <int>   <dbl>
##  1    19751 West Ham United Chelsea      0      0 0.0869 
##  2    19751 West Ham United Chelsea      1      0 0.0420 
##  3    19751 West Ham United Chelsea      2      0 0.00755
##  4    19751 West Ham United Chelsea      0      1 0.212  
##  5    19751 West Ham United Chelsea      1      1 0.103  
##  6    19751 West Ham United Chelsea      2      1 0.0184 
##  7    19751 West Ham United Chelsea      3      1 0.00161
##  8    19751 West Ham United Chelsea      0      2 0.201  
##  9    19751 West Ham United Chelsea      1      2 0.0969 
## 10    19751 West Ham United Chelsea      2      2 0.0174 
## # ... with 1,281 more rows
…
simulated_tables <- scorelines %>%
  split(.$model) %>%
  lapply(., function(sim_data) {
    rerun(n_simulations, simulate_season(sim_data)) %>%
      map(calculate_table) %>%
      bind_rows(.id = "simulation_id") %>%
      #add which model we're using to each sim
      mutate(model = unique(sim_data$model))
  }) %>%
  do.call(rbind, .)

simulated_tables

## # A tibble: 22,000 x 11
##    simulation_id team      w     d     l    gf    ga    gd points position
##  * <chr>         <fct> <int> <int> <int> <int> <int> <int>  <dbl>    <int>
##  1 1             Manc~    17     3     0    65    11    54     54        1
##  2 1             Arse~    17     0     3   100    14    86     51        2
##  3 1             Chel~    11     6     3    22     7    15     39        3
##  4 1             Birm~    11     3     6    31    19    12     36        4
##  5 1             Read~    10     3     7    31    30     1     33        5
##  6 1             West~     9     2     9    26    35    -9     29        6
##  7 1             Ever~     5     3    12    18    39   -21     18        7
##  8 1             Live~     5     1    14    17    40   -23     16        8
##  9 1             Bris~     4     4    12    10    33   -23     16        9
## 10 1             Brig~     4     3    13    24    57   -33     15       10
## # ... with 21,990 more rows, and 1 more variable: model <chr>
…
