The Guardian Knowledge June 2019 | Robert Hickman
…
# show the 25 players with the worst ranking their nation had during that time
head(epl_winning_squads, n = 25)

## # A tibble: 25 x 7
## # Groups:   player, year, team, apps, sub_apps [25]
##     year player       team           apps sub_apps nation        av_ranking
##    <dbl> <chr>        <chr>         <int>    <int> <chr>              <dbl>
##  1  1998 Christopher~ arsenal           7        9 Liberia            114. 
##  2  2010 Gaël Kakuta  chelsea           0        1 Congo DR           106. 
##  3  2004 Justin Hoyte arsenal           0        1 Trinidad and~      102. 
##  4  2013 Jonny Evans  manchester-u~    21        2 Northern Ire~      101. 
##  5  2002 Igors Stepa~ arsenal           6        0 Latvia              99.1
##  6  2009 Manucho      manchester-u~     0        1 Angola              89.9
##  7  2006 Eidur Gudjo~ chelsea          16       10 Iceland             79.8
##  8  2003 Roy Carroll  manchester-u~     8        2 Northern Ire~       76.5
##  9  2001 David Healy  manchester-u~     0        1 Northern Ire~       76  
## 10  1999 Dwight Yorke manchester-u~    32        0 Trinidad and~       75.8
## # ... with 15 more rows
…
