…
extra_credit

## # A tibble: 66 x 4
## # Groups:   p, q [66]
##        p     q     r     n
##    <dbl> <dbl> <dbl> <int>
##  1     0     0    10     1
##  2     0    10     0     1
##  3    10     0     0     1
##  4     0     1     9    10
##  5     0     9     1    10
##  6     1     0     9    10
##  7     1     9     0    10
##  8     9     0     1    10
##  9     9     1     0    10
## 10     0     2     8    45
## # ... with 56 more rows
…
