…
#probability of reaching 100 points is no. of sims > 100 points / n_sims
centurion_probs <- simulated_points %>%
  filter(total_points > 99) %>%
  group_by(season, team) %>%
  summarise(centurion_prob = n() / n_sims) %>%
  arrange(-centurion_prob)

print(centurion_probs)

## # A tibble: 27 x 3
## # Groups:   season [16]
##    season team              centurion_prob
##     <dbl> <chr>                      <dbl>
##  1   2017 Manchester City            0.17 
##  2   2018 Manchester City            0.107
##  3   2018 Liverpool                  0.076
##  4   1994 Manchester United          0.069
##  5   2004 Chelsea                    0.046
##  6   2009 Chelsea                    0.039
##  7   2011 Manchester City            0.029
##  8   2007 Manchester United          0.023
##  9   2016 Tottenham Hotspur          0.023
## 10   2006 Manchester United          0.011
## # … with 17 more rows
…
