THe Knowledge 3 | Robert Hickman
…
days_per_player <- player_goals %>%
  #group by player
  group_by(id) %>%
  #count the dates scored on
  summarise(days = length(unique(date))) %>%
  arrange(-days) %>%
  #rejoin the name data back in
  left_join(.,
            player_goals %>%
              select(id, name) %>%
              unique(),
            by = "id") %>%
  print()

## # A tibble: 413 x 3
##    id     days name             
##    <chr> <int> <chr>            
##  1 8198    244 Cristiano Ronaldo
##  2 28003   210 Messi            
##  3 7349    203 Raúl             
##  4 3455    200 Ibrahimovic      
##  5 3207    189 Henry            
##  6 4257    187 Eto'o            
##  7 3924    173 Drogba           
##  8 48280   173 Cavani           
##  9 44352   172 Suárez           
## 10 7980    171 Villa            
## # ... with 403 more rows
…
left_join(
  days_per_player,
  player_goals %>%
    group_by(id) %>%
    summarise(goals = n()),
  by = "id"
) %>%
  #work out days/total goals
  mutate(proportion_unique = days / goals) %>%
  arrange(-days) %>%
  filter(days > 150) %>%
  select(name, goals, days, proportion_unique) %>%
  arrange(-proportion_unique)

## # A tibble: 34 x 4
##    name      goals  days proportion_unique
##    <chr>     <int> <int>             <dbl>
##  1 Gilardino   231   154             0.667
##  2 Cissé       269   166             0.617
##  3 Signori     260   160             0.615
##  4 Di Vaio     269   165             0.613
##  5 Toni        273   165             0.604
##  6 Kuyt        281   169             0.601
##  7 Lampard     258   154             0.597
##  8 Frei        257   153             0.595
##  9 Drogba      300   173             0.577
## 10 Trézéguet   265   152             0.574
## # ... with 24 more rows
…
